0	-0.0	0.0	0.0	0.0	0.0	0.0	-0.0	3.4767296	3.4767296
1	9.239967	9.592322	0.0	0.0	0.0	0.0	-0.3523553	3.3623188	3.4767296
2	7.9029107	8.622568	0.0	0.0	0.0	0.0	-0.7196581	3.3728967	3.4767296
3	5.8985543	6.9314346	0.0	0.0	0.0	0.0	-1.0328803	3.3918545	3.4767296
4	6.1441054	7.493466	0.0	0.0	0.0	0.0	-1.3493602	3.385481	3.4767296
5	4.107325	5.7858095	0.0	0.0	0.0	0.0	-1.6784843	3.4050741	3.4767296
6	2.575225	4.522297	0.0	0.0	0.0	0.0	-1.9470718	3.4200156	3.4767296
7	1.1209482	3.2579267	0.0	0.0	0.0	0.0	-2.1369786	3.435355	3.4767296
8	-0.77788854	1.4420464	0.0	0.0	0.0	0.0	-2.219935	3.4580815	3.4767296
9	-2.562361	-0.2862039	0.0	0.0	0.0	0.0	-2.2761571	3.4767296	3.4729855
10	-0.5836822	1.7070923	0.0	0.0	0.0	0.0	-2.2907743	3.4547122	3.4767296
11	-1.1841522	1.1858325	0.0	0.0	0.0	0.0	-2.3699849	3.4613554	3.4767296
12	-0.8059325	1.6855817	0.0	0.0	0.0	0.0	-2.4915142	3.454985	3.4767296
13	0.6040253	3.268393	0.0	0.0	0.0	0.0	-2.6643677	3.4352264	3.4767296
14	-0.95243007	1.8684616	0.0	0.0	0.0	0.0	-2.8208916	3.4526699	3.4767296
15	-1.842317	1.0294579	0.0	0.0	0.0	0.0	-2.871775	3.4633617	3.4767296
16	-0.8791191	2.1157248	0.0	0.0	0.0	0.0	-2.994844	3.449553	3.4767296
17	0.37936002	3.5009823	0.0	0.0	0.0	0.0	-3.1216223	3.432376	3.4767296
18	-0.8349382	2.6268218	0.0	0.0	0.0	0.0	-3.46176	3.4431596	3.4767296
19	1.0323467	4.8300076	0.0	0.0	0.0	0.0	-3.7976608	3.4163415	3.4767296
20	2.6907241	7.2391124	0.0	0.0	0.0	0.0	-4.5483885	3.3883564	3.4767296
21	-1.1926901	4.156671	0.0	0.0	0.0	0.0	-5.349361	3.4244113	3.4767296
22	-2.4020958	3.551839	0.0	0.0	0.0	0.0	-5.9539347	3.4317544	3.4767296
23	-6.514042	-0.40986854	0.0	0.0	0.0	0.0	-6.104173	3.4767296	3.4713743
24	-9.940181	-4.673361	0.0	0.0	0.0	0.0	-5.26682	3.4767296	3.418209
25	-8.850518	-5.0529313	0.0	598.03	931.33	516.17	-3.7975872	0.6627176	3.123164
